[
    {
        "id": "1",
        "name": "קריאת שעוני מים שפרעם",
        "time": "9:00",
        "class": "success",
        "mission": [
            {
                "name": "m1",
                "sad": "sadsa",
                "add": [
                    {
                        "name": "123456789012345",
                        "currentcall": "1",
                        "codestatus": "2",
                        "humanstatus": [
                            {
                                "status": "לא קריא",
                                "status": "שבור",
                                "status": "אין גישה",
                                "status": "כלב בחצר"

                            }
                        ],
                        "previouscall": "777",
                        "consumption": "51213",
                        "address": "שכונה מזרחית ליד קופת חולים",
                        "remarks": "שעון ממוקם בחצר אחורי, כניסה מצד ימין",
                        "gallery": [
                            {
                                "image1": "1.jpg",
                                "image2": "2.jpg",
                                "image3": "3.jpg"
                            }
                        ]
                    }
                ]
            },
            {
                "name": "m2",
                "sad": "sadsa",
                "add": [
                    {
                        "name": "add2",
                        "sad": "sadsa"
                    }
                ]
            },
            {
                "name": "m3",
                "sad": "sadsa",
                "add": [
                    {
                        "name": "add3",
                        "sad": "sadsa"
                    }
                ]
            }
        ]
    },
    {
        "id": "2",
        "name": "קריאת שעוני מים טמרה",
        "time": "10:16",
        "class": "info",
        "mission": [
            {
                "name": "m1",
                "sad": "sadsa",
                "add": [
                    {
                        "name": "add1",
                        "sad": "sadsa"
                    }
                ]
            },
            {
                "name": "m2",
                "sad": "sadsa",
                "add": [
                    {
                        "name": "add2",
                        "sad": "sadsa"
                    }
                ]
            },
            {
                "name": "m3",
                "sad": "sadsa",
                "add": [
                    {
                        "name": "add3",
                        "sad": "sadsa"
                    }
                ]
            }
        ]
    },
    {
        "id": "3",
        "name": "החלפת שעון מים שפרעם",
        "time": "08:22",
        "class": "primary",
        "mission": [
            {
                "name": "m1",
                "sad": "sadsa",
                "add": [
                    {
                        "name": "add1",
                        "sad": "sadsa"
                    }
                ]
            },
            {
                "name": "m2",
                "sad": "sadsa",
                "add": [
                    {
                        "name": "add2",
                        "sad": "sadsa"
                    }
                ]
            },
            {
                "name": "m3",
                "sad": "sadsa",
                "add": [
                    {
                        "name": "add3",
                        "sad": "sadsa"
                    }
                ]
            }
        ]
    },
    {
        "id": "4",
        "name": "התקנת מד מים שפרעם",
        "time": "11:06",
        "class": "default",
        "mission": [
            {
                "name": "m1",
                "sad": "sadsa",
                "add": [
                    {
                        "name": "add1",
                        "sad": "sadsa"
                    }
                ]
            },
            {
                "name": "m2",
                "sad": "sadsa",
                "add": [
                    {
                        "name": "add2",
                        "sad": "sadsa"
                    }
                ]
            },
            {
                "name": "m3",
                "sad": "sadsa",
                "add": [
                    {
                        "name": "add3",
                        "sad": "sadsa"
                    }
                ]
            }
        ]
    },
    {
        "id": "5",
        "name": "בדיקה חוזרת",
        "time": "12:00",
        "class": "primary",
        "mission": [
            {
                "name": "m1",
                "sad": "sadsa",
                "add": [
                    {
                        "name": "add1",
                        "sad": "sadsa"
                    }
                ]
            },
            {
                "name": "m2",
                "sad": "sadsa",
                "add": [
                    {
                        "name": "add2",
                        "sad": "sadsa"
                    }
                ]
            },
            {
                "name": "m3",
                "sad": "sadsa",
                "add": [
                    {
                        "name": "add3",
                        "sad": "sadsa"
                    }
                ]
            }
        ]
    },
    {
        "id": "6",
        "name": "קריאת שעוני מים שפרעם",
        "time": "9:00",
        "class": "success",
        "mission": [
            {
                "name": "m1",
                "sad": "sadsa",
                "add": [
                    {
                        "name": "add1",
                        "sad": "sadsa"
                    }
                ]
            },
            {
                "name": "m2",
                "sad": "sadsa",
                "add": [
                    {
                        "name": "add2",
                        "sad": "sadsa"
                    }
                ]
            },
            {
                "name": "m3",
                "sad": "sadsa",
                "add": [
                    {
                        "name": "add3",
                        "sad": "sadsa"
                    }
                ]
            }
        ]
    }
]